{
    "clientId": "app2",
    "rootUrl": "http://13.127.194.16/crm/resources/views/app2/",
    "enabled": true,
    "redirectUris": [
        "http://13.127.194.16/crm/resources/views/app2/*"
    ],
    "webOrigins": [
        "http://13.127.194.16"
    ],
    "publicClient": true
}