<?xml version="1.0" encoding="UTF-8"?>
<svg width="18px" height="18px" viewBox="0 0 18 18" version="1.1" xmlns="http://www.w3.org/2000/svg" xmlns:xlink="http://www.w3.org/1999/xlink">
    <!-- Generator: Sketch 51.2 (57519) - http://www.bohemiancoding.com/sketch -->
    <title>Icon/20px/settings [#1491]</title>
    <desc>Created with Sketch.</desc>
    <defs>
        <path d="M16.971246,9 L2.99680511,9 L2.99680511,5.971 C2.99680511,5.435 3.43111022,5 3.96625399,5 L4.99361022,5 L4.99361022,7 L6.99041534,7 L6.99041534,5 L12.9776358,5 L12.9776358,7 L14.9744409,7 L14.9744409,5 L15.9728435,5 C16.5239617,5 16.971246,5.448 16.971246,6 L16.971246,9 Z M16.971246,16 C16.971246,16.55 16.5219649,17 15.9728435,17 L3.99520767,17 C3.44408946,17 2.99680511,16.552 2.99680511,16 L2.99680511,11 L16.971246,11 L16.971246,16 Z M1.06389776,16.761 C1.06389776,17.865 2.02136581,19 3.12360224,19 L17.0980431,19 C18.201278,19 19,17.979 19,16.761 C19,16.372 18.9680511,6.36 18.9680511,5.708 C18.9680511,3.626 18.6875,3 14.9744409,3 L14.9744409,1 L12.9776358,1 L12.9776358,3 L6.99041534,3 L6.99041534,1 L4.99361022,1 L4.99361022,3 L2.99680511,3 C1.8985623,3 1,3.9 1,5 L1.06389776,16.761 Z" id="path-1"></path>
    </defs>
    <g id="Version-4-(Task)" stroke="none" stroke-width="1" fill="none" fill-rule="evenodd">
        <g id="01_My-Task_create-new-task" transform="translate(-456.000000, -539.000000)">
            <g id="Group-27" transform="translate(419.000000, 106.000000)">
                <g id="Group-15">
                    <g id="Dialog">
                        <g id="Content" transform="translate(24.000000, 105.000000)">
                            <g id="When" transform="translate(0.000000, 290.000000)">
                                <g id="Input-w/-Label" transform="translate(0.000000, 2.000000)">
                                    <g id="Select" transform="translate(0.000000, 26.000000)">
                                        <g id="Icon/20px/calendar-[#1322]" transform="translate(12.000000, 9.000000)">
                                            <mask id="mask-2" fill="white">
                                                <use xlink:href="#path-1"></use>
                                            </mask>
                                            <use id="calendar-[#1322]" fill-opacity="0" fill="#FFFFFF" fill-rule="evenodd" xlink:href="#path-1"></use>
                                            <g id="⚙️Atoms/Colour/Grey-Darker/3---50%" mask="url(#mask-2)" fill="#9EA0A5" fill-rule="evenodd" opacity="0.5">
                                                <rect id="Colour" x="0" y="0" width="20" height="20"></rect>
                                            </g>
                                        </g>
                                    </g>
                                </g>
                            </g>
                        </g>
                    </g>
                </g>
            </g>
        </g>
    </g>
</svg>