<?xml version="1.0" encoding="UTF-8"?>
<svg width="24px" height="24px" viewBox="0 0 24 24" version="1.1" xmlns="http://www.w3.org/2000/svg" xmlns:xlink="http://www.w3.org/1999/xlink">
    <!-- Generator: Sketch 51.2 (57519) - http://www.bohemiancoding.com/sketch -->
    <title>dashboard-grey</title>
    <desc>Created with Sketch.</desc>
    <defs></defs>
    <g id="dashboard-grey" stroke="none" stroke-width="1" fill="none" fill-rule="evenodd">
        <g id="round-dashboard-24px">
            <g id="Bounding_Boxes">
                <polygon id="Shape" points="0 0 24 0 24 24 0 24"></polygon>
            </g>
            <g id="Rounded" transform="translate(3.000000, 3.000000)" fill="#9EA0A5" fill-rule="nonzero">
                <path d="M1,10 L7,10 C7.55,10 8,9.55 8,9 L8,1 C8,0.45 7.55,0 7,0 L1,0 C0.45,0 0,0.45 0,1 L0,9 C0,9.55 0.45,10 1,10 Z M1,18 L7,18 C7.55,18 8,17.55 8,17 L8,13 C8,12.45 7.55,12 7,12 L1,12 C0.45,12 0,12.45 0,13 L0,17 C0,17.55 0.45,18 1,18 Z M11,18 L17,18 C17.55,18 18,17.55 18,17 L18,9 C18,8.45 17.55,8 17,8 L11,8 C10.45,8 10,8.45 10,9 L10,17 C10,17.55 10.45,18 11,18 Z M10,1 L10,5 C10,5.55 10.45,6 11,6 L17,6 C17.55,6 18,5.55 18,5 L18,1 C18,0.45 17.55,0 17,0 L11,0 C10.45,0 10,0.45 10,1 Z" id="Shape"></path>
            </g>
        </g>
    </g>
</svg>