<?xml version="1.0" encoding="UTF-8"?>
<svg width="6px" height="10px" viewBox="0 0 6 10" version="1.1" xmlns="http://www.w3.org/2000/svg" xmlns:xlink="http://www.w3.org/1999/xlink">
    <!-- Generator: Sketch 51.2 (57519) - http://www.bohemiancoding.com/sketch -->
    <title>Icon/Dropdown Arrow</title>
    <desc>Created with Sketch.</desc>
    <defs>
        <path d="M5.9976391,6.94312516 L2.94312516,9.9976391 L-1.73194792e-14,7.05451394 L5.9976391,6.94312516 Z M-4.26325641e-14,3.0450687 L3.0450687,1.77635684e-15 L5.97909306,2.93402436 L-4.26325641e-14,3.0450687 Z" id="path-1"></path>
    </defs>
    <g id="Version-4-(Task)" stroke="none" stroke-width="1" fill="none" fill-rule="evenodd">
        <g id="01_My-Task" transform="translate(-234.000000, -672.000000)">
            <g id="Menu" transform="translate(-2.000000, 0.000000)">
                <g id="Group-3" transform="translate(2.000000, 105.000000)">
                    <g id="Group-6" transform="translate(0.000000, 534.000000)">
                        <g id="Icon/Other/Dropdown-Arrow" transform="translate(234.000000, 33.000000)">
                            <mask id="mask-2" fill="white">
                                <use xlink:href="#path-1"></use>
                            </mask>
                            <use id="Arrow" fill="#9EA0A5" fill-rule="evenodd" opacity="0" xlink:href="#path-1"></use>
                            <g id="⚙️Atoms/Colour/Grey-Darker/3---50%" mask="url(#mask-2)" fill="#9EA0A5" fill-rule="evenodd" opacity="0.5">
                                <rect id="Colour" x="0" y="0" width="6" height="10"></rect>
                            </g>
                        </g>
                    </g>
                </g>
            </g>
        </g>
    </g>
</svg>