<svg width="48" height="48" xmlns="http://www.w3.org/2000/svg">

 <g>
  <title>background</title>
  <rect fill="none" id="canvas_background" height="402" width="582" y="-1" x="-1"/>
 </g>
 <g>
  <title>Layer 1</title>
  <path fill="#9ea0a5" id="svg_1" d="m28,10l16,0l0,4l-16,0l0,-4zm0,15l16,0l0,4l-16,0l0,-4zm0,11l16,0l0,4l-16,0l0,-4zm-24,-17c0,7.17 5.83,13 13,13l1,0l0,4l6,-6l-6,-6l0,4l-1,0c-4.96,0 -9,-4.04 -9,-9s4.04,-9 9,-9l7,0l0,-4l-7,0c-7.17,4 -13,9.83 -13,17l0,-4z"/>
  <path transform="translate(0,44.97624206542969) " id="svg_2" fill="none" d="m0,0l48,0l0,48l-48,0l0,-48z"/>
 </g>
</svg>