<svg width="30" height="30" xmlns="http://www.w3.org/2000/svg">

 <g>
  <title>background</title>
  <rect fill="none" id="canvas_background" height="402" width="582" y="-1" x="-1"/>
 </g>
 <g>
  <title stroke="#3784c1" fill="#3784c1" fill-opacity="0">Layer 1</title>
  <circle fill-opacity="0" id="svg_1" fill="#3784c1" stroke="#3784c1" stroke-width="2" stroke-miterlimit="10" r="6" cy="15" cx="23"/>
  <circle fill-opacity="0" id="svg_2" fill="#3784c1" stroke="#3784c1" stroke-width="2" stroke-miterlimit="10" r="6" cy="15" cx="7"/>
  <line fill-opacity="0" id="svg_3" fill="none" stroke="#3784c1" stroke-width="2" stroke-miterlimit="10" y2="21" y1="21" x2="23" x1="7"/>
 </g>
</svg>