<?xml version="1.0" encoding="UTF-8"?>
<svg width="24px" height="24px" viewBox="0 0 24 24" version="1.1" xmlns="http://www.w3.org/2000/svg" xmlns:xlink="http://www.w3.org/1999/xlink">
    <!-- Generator: Sketch 51.2 (57519) - http://www.bohemiancoding.com/sketch -->
    <title>Reports-grey</title>
    <desc>Created with Sketch.</desc>
    <defs></defs>
    <g id="Reports-grey" stroke="none" stroke-width="1" fill="none" fill-rule="evenodd">
        <g id="round-insert_chart_outlined-24px">
            <g id="Bounding_Boxes">
                <polygon id="Shape" points="0 0 24 0 24 24 0 24"></polygon>
            </g>
            <g id="Rounded" transform="translate(3.000000, 3.000000)" fill="#9EA0A5" fill-rule="nonzero">
                <path d="M5,14 C4.45,14 4,13.55 4,13 L4,8 C4,7.45 4.45,7 5,7 C5.55,7 6,7.45 6,8 L6,13 C6,13.55 5.55,14 5,14 Z M9,14 C8.45,14 8,13.55 8,13 L8,5 C8,4.45 8.45,4 9,4 C9.55,4 10,4.45 10,5 L10,13 C10,13.55 9.55,14 9,14 Z M13,14 C12.45,14 12,13.55 12,13 L12,11 C12,10.45 12.45,10 13,10 C13.55,10 14,10.45 14,11 L14,13 C14,13.55 13.55,14 13,14 Z M15,16 L3,16 C2.45,16 2,15.55 2,15 L2,3 C2,2.45 2.45,2 3,2 L15,2 C15.55,2 16,2.45 16,3 L16,15 C16,15.55 15.55,16 15,16 Z M16,0 L2,0 C0.9,0 0,0.9 0,2 L0,16 C0,17.1 0.9,18 2,18 L16,18 C17.1,18 18,17.1 18,16 L18,2 C18,0.9 17.1,0 16,0 Z" id="Shape"></path>
            </g>
        </g>
    </g>
</svg>