<?xml version="1.0" encoding="UTF-8"?>
<svg width="11px" height="5px" viewBox="0 0 11 5" version="1.1" xmlns="http://www.w3.org/2000/svg" xmlns:xlink="http://www.w3.org/1999/xlink">
    <!-- Generator: Sketch 51.2 (57519) - http://www.bohemiancoding.com/sketch -->
    <title>Arrow</title>
    <desc>Created with Sketch.</desc>
    <defs>
        <path d="M7.90156695,0.83902395 L8.61373135,1.58100318 C8.76604979,1.74071396 8.65206314,1.99905491 8.43064659,1.99905491 L0.917110451,1.99905491 C0.638700573,1.99905491 0.5,2.22385159 0.5,2.50021632 L0.5,2.49621104 C0.5,2.77257577 0.638700573,3.00037642 0.917110451,3.00037642 L8.4230811,3.00037642 C8.64550639,3.00037642 8.75898867,3.27023256 8.60465276,3.42894202 L7.89652329,4.1589054 C7.70486432,4.35816837 7.71343853,4.67608795 7.91669792,4.8643364 L7.91770665,4.86633904 C8.11844421,5.05258484 8.43316842,5.04307228 8.62230556,4.84481063 L10.2246755,3.17360504 C10.5933668,2.78609361 10.5913493,2.1802941 10.2211449,1.79478533 L8.63289724,0.153619381 C8.44426446,-0.0426396335 8.13206208,-0.0521521878 7.93182889,0.13259163 L7.92678523,0.137598237 C7.72403021,0.324344698 7.71293417,0.63875965 7.90156695,0.83902395" id="path-1"></path>
    </defs>
    <g id="Version-4-(Task)" stroke="none" stroke-width="1" fill="none" fill-rule="evenodd">
        <g id="02_Task-Detail" transform="translate(-823.000000, -301.000000)">
            <g id="Last-5-Orders" transform="translate(272.000000, 273.000000)">
                <g id="Icon/Other/Arrow">
                    <g transform="translate(551.000000, 28.000000)">
                        <mask id="mask-2" fill="white">
                            <use xlink:href="#path-1"></use>
                        </mask>
                        <use id="Arrow" fill="#9B9B9B" xlink:href="#path-1"></use>
                    </g>
                </g>
            </g>
        </g>
    </g>
</svg>